\relax 
\providecommand{\transparent@use}[1]{}
\citation{pm}
\transparent@use{.1}
\@writefile{toc}{\contentsline {subsection}{\numberline {2.2}Product Category}{5}}
\@writefile{toc}{\contentsline {paragraph}{}{5}}
\@writefile{toc}{\contentsline {subsection}{\numberline {2.3}Career Progression}{5}}
\@writefile{toc}{\contentsline {paragraph}{}{5}}
\@setckpt{./Content_pages/Details/Proj}{
\setcounter{page}{6}
\setcounter{equation}{0}
\setcounter{enumi}{0}
\setcounter{enumii}{0}
\setcounter{enumiii}{0}
\setcounter{enumiv}{0}
\setcounter{footnote}{0}
\setcounter{mpfootnote}{0}
\setcounter{part}{0}
\setcounter{section}{2}
\setcounter{subsection}{3}
\setcounter{subsubsection}{0}
\setcounter{paragraph}{0}
\setcounter{subparagraph}{0}
\setcounter{figure}{2}
\setcounter{table}{0}
\setcounter{blindtext}{1}
\setcounter{Blindtext}{5}
\setcounter{blind@countparstart}{0}
\setcounter{blindlist}{0}
\setcounter{blindlistlevel}{0}
\setcounter{blindlist@level}{0}
\setcounter{blind@listcount}{0}
\setcounter{blind@levelcount}{0}
\setcounter{blind@randomcount}{0}
\setcounter{blind@randommax}{0}
\setcounter{blind@pangramcount}{0}
\setcounter{blind@pangrammax}{0}
}
