\relax 
\providecommand{\transparent@use}[1]{}
\transparent@use{.1}
\@writefile{toc}{\contentsline {subsection}{\numberline {2.1}Technical roles}{3}}
\@writefile{toc}{\contentsline {paragraph}{}{3}}
\@writefile{toc}{\contentsline {paragraph}{Computer Science}{3}}
\@writefile{toc}{\contentsline {paragraph}{Software Engineering}{3}}
\@writefile{toc}{\contentsline {paragraph}{Information System}{3}}
\@writefile{toc}{\contentsline {paragraph}{Data Science}{3}}
\transparent@use{.1}
\@writefile{toc}{\contentsline {paragraph}{Web Front-end Developer:\\}{4}}
\@writefile{toc}{\contentsline {paragraph}{Operation and Security Architect:\\}{4}}
\@writefile{toc}{\contentsline {paragraph}{WeChat Android Client-end developer:\\}{4}}
\@writefile{toc}{\contentsline {paragraph}{Wechat Business Data Analyst:\\}{4}}
\@setckpt{./Content_pages/Details/Tech}{
\setcounter{page}{5}
\setcounter{equation}{0}
\setcounter{enumi}{0}
\setcounter{enumii}{0}
\setcounter{enumiii}{0}
\setcounter{enumiv}{0}
\setcounter{footnote}{0}
\setcounter{mpfootnote}{0}
\setcounter{part}{0}
\setcounter{section}{2}
\setcounter{subsection}{1}
\setcounter{subsubsection}{0}
\setcounter{paragraph}{0}
\setcounter{subparagraph}{0}
\setcounter{figure}{2}
\setcounter{table}{0}
\setcounter{blindtext}{1}
\setcounter{Blindtext}{5}
\setcounter{blind@countparstart}{0}
\setcounter{blindlist}{0}
\setcounter{blindlistlevel}{0}
\setcounter{blindlist@level}{0}
\setcounter{blind@listcount}{0}
\setcounter{blind@levelcount}{0}
\setcounter{blind@randomcount}{0}
\setcounter{blind@randommax}{0}
\setcounter{blind@pangramcount}{0}
\setcounter{blind@pangrammax}{0}
}
