\relax 
\providecommand{\transparent@use}[1]{}
\citation{team}
\transparent@use{.1}
\@writefile{toc}{\contentsline {section}{\numberline {2}Careers in WeChat}{2}}
\@writefile{toc}{\contentsline {paragraph}{Type of Roles available!\\}{2}}
\@writefile{toc}{\contentsline {paragraph}{What We are Looking for?}{2}}
\@writefile{lof}{\contentsline {figure}{\numberline {2}{\ignorespaces Founder Team of WeChat \cite  {team}}}{2}}
\@setckpt{./Content_pages/Career_Needs}{
\setcounter{page}{3}
\setcounter{equation}{0}
\setcounter{enumi}{0}
\setcounter{enumii}{0}
\setcounter{enumiii}{0}
\setcounter{enumiv}{0}
\setcounter{footnote}{0}
\setcounter{mpfootnote}{0}
\setcounter{part}{0}
\setcounter{section}{2}
\setcounter{subsection}{0}
\setcounter{subsubsection}{0}
\setcounter{paragraph}{0}
\setcounter{subparagraph}{0}
\setcounter{figure}{2}
\setcounter{table}{0}
\setcounter{blindtext}{1}
\setcounter{Blindtext}{5}
\setcounter{blind@countparstart}{0}
\setcounter{blindlist}{0}
\setcounter{blindlistlevel}{0}
\setcounter{blindlist@level}{0}
\setcounter{blind@listcount}{0}
\setcounter{blind@levelcount}{0}
\setcounter{blind@randomcount}{0}
\setcounter{blind@randommax}{0}
\setcounter{blind@pangramcount}{0}
\setcounter{blind@pangrammax}{0}
}
