\relax 
\providecommand{\transparent@use}[1]{}
\bibstyle{unsrt}
\bibdata{bibliography}
\bibcite{logo}{1}
\bibcite{team}{2}
\bibcite{pm}{3}
\bibcite{carnival}{4}
\bibcite{college}{5}
\transparent@use{.1}
\@writefile{toc}{\contentsline {section}{\numberline {4}Join Us!}{8}}
\@writefile{toc}{\contentsline {paragraph}{}{8}}
