\relax 
\providecommand{\transparent@use}[1]{}
\citation{carnival}
\transparent@use{.1}
\@writefile{toc}{\contentsline {section}{\numberline {3}Our Culture and Welfare}{6}}
\@writefile{toc}{\contentsline {paragraph}{}{6}}
\@writefile{lof}{\contentsline {figure}{\numberline {3}{\ignorespaces Chrismas Party 2015}}{6}}
\citation{college}
\transparent@use{.1}
\@writefile{lof}{\contentsline {figure}{\numberline {4}{\ignorespaces Tencent Yearly Carnival \cite  {carnival}}}{7}}
\@writefile{toc}{\contentsline {paragraph}{}{7}}
\@writefile{lof}{\contentsline {figure}{\numberline {5}{\ignorespaces Tencent College in Dalian \cite  {college}}}{7}}
\@setckpt{./Content_pages/culture_welfare}{
\setcounter{page}{8}
\setcounter{equation}{0}
\setcounter{enumi}{0}
\setcounter{enumii}{0}
\setcounter{enumiii}{0}
\setcounter{enumiv}{0}
\setcounter{footnote}{0}
\setcounter{mpfootnote}{0}
\setcounter{part}{0}
\setcounter{section}{3}
\setcounter{subsection}{0}
\setcounter{subsubsection}{0}
\setcounter{paragraph}{0}
\setcounter{subparagraph}{0}
\setcounter{figure}{5}
\setcounter{table}{0}
\setcounter{blindtext}{1}
\setcounter{Blindtext}{5}
\setcounter{blind@countparstart}{0}
\setcounter{blindlist}{0}
\setcounter{blindlistlevel}{0}
\setcounter{blindlist@level}{0}
\setcounter{blind@listcount}{0}
\setcounter{blind@levelcount}{0}
\setcounter{blind@randomcount}{0}
\setcounter{blind@randommax}{0}
\setcounter{blind@pangramcount}{0}
\setcounter{blind@pangrammax}{0}
}
