\relax 
\providecommand{\transparent@use}[1]{}
\transparent@use{.1}
\pgfsyspdfmark {pgfid1}{4736286}{50644704}
\@input{./Content_Pages/About_Us.aux}
\pgfsyspdfmark {pgfid2}{4736286}{50644704}
\@input{./Content_pages/Career_Needs.aux}
\pgfsyspdfmark {pgfid3}{4736286}{50644704}
\@input{./Content_pages/Details/Tech.aux}
\pgfsyspdfmark {pgfid4}{4736286}{50644704}
\pgfsyspdfmark {pgfid5}{4736286}{50644704}
\@input{./Content_pages/Details/Proj.aux}
\pgfsyspdfmark {pgfid6}{4736286}{50644704}
\@input{./Content_pages/culture_welfare.aux}
\pgfsyspdfmark {pgfid7}{4736286}{50644704}
\pgfsyspdfmark {pgfid8}{4736286}{50644704}
\@input{./Content_pages/Contact_Us.aux}
\pgfsyspdfmark {pgfid9}{4736286}{50644704}
